{
  "name": "conan2d20",
  "title": "Robert E. Howard's Conan: Adventures In An Age Undreamed Of",
  "description": "A community-contributed game system for running games of CONAN in the cinematic 2D20 game system by Modiphius on the Foundry VTT environment. Please refer to the README.md file for reporting issues.",
  "version": "1.2.0",
  "schema": "0.031421",
  "authors": [
    {
      "name": "Jerome Lavoie",
      "email": "kayhos@gmail.com",
      "discord": "KayhosRaven#1642",
      "reddit": "u/Kayhosraven"
    },
    {
      "name": "Ian Henry",
      "url": "http://www.blackbell.games/",
      "discord": "eeyun#0890"
    }
  ],
  "scripts": [],
  "esmodules": ["main.bundle.js"],
  "styles": ["styles/conan2d20.css"],
  "packs": [
    {
      "name": "actions-core",
      "label": "Actions (Core)",
      "system": "conan2d20",
      "module": "conan2d20",
      "path": "./packs/actions-core.db",
      "entity": "Item"
    },
    {
      "name": "belongings-core",
      "label": "Belongings (Core)",
      "system": "conan2d20",
      "module": "conan2d20",
      "path": "./packs/belongings-core.db",
      "entity": "Item"
    },
    {
      "name": "sorcery-core",
      "label": "Sorcery (Core)",
      "system": "conan2d20",
      "module": "conan2d20",
      "path": "./packs/sorcery-core.db",
      "entity": "Item"
    },
    {
      "name": "talents-core",
      "label": "Talents (Core)",
      "system": "conan2d20",
      "module": "conan2d20",
      "path": "./packs/talents-core.db",
      "entity": "Item"
    },
    {
      "name": "rollable-tables",
      "label": "Rollable Tables",
      "system": "conan2d20",
      "module": "conan2d20",
      "path": "./packs/rollable-tables.db",
      "entity": "RollTable"
    }
  ],
  "languages": [
    {
      "lang": "en",
      "name": "English",
      "path": "lang/en.json"
    }
  ],
  "socket": true,
  "initiative": null,
  "gridDistance": 5,
  "gridUnits": "ft",
  "primaryTokenAttribute": "health.physical",
  "secondaryTokenAttribute": "health.mental",
  "minimumCoreVersion": "0.8.0",
  "compatibleCoreVersion": "0.8.8",
  "allowBugReporter": true,
  "bugs": "https://gitlab.com/fvtt-modiphius/foundryvtt-conan2d20/-/issues",
  "url": "https://gitlab.com/fvtt-modiphius/foundryvtt-conan2d20",
  "manifest": "https://gitlab.com/fvtt-modiphius/foundryvtt-conan2d20/-/jobs/artifacts/release/raw/system.json?job=build",
  "download": "https://gitlab.com/fvtt-modiphius/foundryvtt-conan2d20/-/jobs/artifacts/release/raw/conan2d20.zip?job=build",
  "license": "LICENSE.txt",
  "background": "./assets/LoadingScreenBackdropImage_11.png"
}
